Data wrangling and matrix algebra
…
Notice here the name of the function used to read the .csv file (read_csv()), which superficially looks like the function read.csv() that was used earlier. Here’s the distinction:

read.csv() – read a .csv file as a data.frame object

read_csv() – read a .csv file as a “tibble” (i.e. a tbl_df object)

Take a look at the tibble version of the data:

class(eugclim)

## [1] "spec_tbl_df" "tbl_df"      "tbl"         "data.frame"

eugclim

## # A tibble: 36 x 18
##     year   mon  yrmn  tmax  tmin  tavg  emxt  emnt  htdd  cldd  prcp  emxp  dp01  dp05  dp10  snow  emsd
##    <dbl> <dbl> <dbl> <dbl> <dbl> <dbl> <dbl> <dbl> <dbl> <dbl> <dbl> <dbl> <dbl> <dbl> <dbl> <dbl> <dbl>
##  1  2013     1 2013    5.7  -0.4   2.6  13.3  -6.7 487.    0    34.5   6.4    11     0     0    NA    NA
##  2  2013     2 2013.  10.2   2.3   6.3  13.9  -2.8 338.    0    41    11.2    14     0     0    NA    NA
##  3  2013     3 2013.  14.5   3     8.7  22.2  -2.2 298.    0    54.2  12.7    12     1     0    NA    NA
##  4  2013     4 2013.  17     4.6  10.8  25.6  -0.5 226.    0    36.8  11.9    10     0     0    NA     0
##  5  2013     5 2013.  21.1   6.9  14    30     1.1 137.    2.5  51.7  13      13     1     0    NA     0
##  6  2013     6 2013.  25     9.8  17.4  35.6   4.4  54    25.3  28.1  18.3     7     1     0     0     0
##  7  2013     7 2014.  30.6  10.8  20.7  35.6   6.1   4.5  77.7   0     0       0     0     0     0     0
##  8  2013     8 2014.  28.6  12.7  20.7  35     7.8   7.1  79.2   6.4   3.8     4     0     0     0     0
##  9  2013     9 2014.  23.1  11.9  17.5  32.2   5    57    33.1 180.   48.3    15     6     1    NA     0
## 10  2013    10 2014.  16.5   3.9  10.2  25.6  -2.1 252.    0    14.8   8.4     6     0     0    NA     0
## # … with 26 more rows, and 1 more variable: awnd <dbl>
…
## # A tibble: 3 x 14
##    year param   `1`   `2`   `3`   `4`   `5`   `6`   `7`   `8`   `9`  `10`  `11`  `12`
##   <dbl> <chr> <dbl> <dbl> <dbl> <dbl> <dbl> <dbl> <dbl> <dbl> <dbl> <dbl> <dbl> <dbl>
## 1  2013 tavg    2.6   6.3   8.7  10.8  14    17.4  20.7  20.7  17.5  10.2   6.8   0.8
## 2  2014 tavg    4.3   5.5   9.5  11.2  14.5  16.3  21.6  21.9  18.6  15.1   7.2   6.8
## 3  2015 tavg    6.5   9    10.5   9.8  14.5  19.5  21.9  21    16.6  14.5   6.4   6.6

Then reshape the data using gather():

# reshape by gathering
eugclim_alt_tavg2 <- gather(eugclim_alt_tavg, `1`:`12`, key="month", value="cases")
eugclim_alt_tavg2

## # A tibble: 36 x 4
##     year param month cases
##    <dbl> <chr> <chr> <dbl>
##  1  2013 tavg  1       2.6
##  2  2014 tavg  1       4.3
##  3  2015 tavg  1       6.5
##  4  2013 tavg  2       6.3
##  5  2014 tavg  2       5.5
##  6  2015 tavg  2       9  
##  7  2013 tavg  3       8.7
##  8  2014 tavg  3       9.5
##  9  2015 tavg  3      10.5
## 10  2013 tavg  4      10.8
## # … with 26 more rows

The arguments of the gather() function include 1) the table to be reshaped (eugclim_alt_tavg), 2) the columns to be gathered together (here specified as `1`:`12` and note the use of the backtick (`) to indicate the columnn names, which in this example are character (chr) variables), 3) the “key” column that individual columns will be stacked up into, and 4) the values that will be stacked.

The observations are not quite in the right time-series order, but they can be sorted using the arrange() function from the dplyr package:

# rearrange (sort)
eugclim_alt_tavg3 <- arrange(eugclim_alt_tavg2, year)
eugclim_alt_tavg3

## # A tibble: 36 x 4
##     year param month cases
##    <dbl> <chr> <chr> <dbl>
##  1  2013 tavg  1       2.6
##  2  2013 tavg  2       6.3
##  3  2013 tavg  3       8.7
##  4  2013 tavg  4      10.8
##  5  2013 tavg  5      14  
##  6  2013 tavg  6      17.4
##  7  2013 tavg  7      20.7
##  8  2013 tavg  8      20.7
##  9  2013 tavg  9      17.5
## 10  2013 tavg  10     10.2
## # … with 26 more rows
…
Looks right.

3.2 Reshape the whole data set

The whole alternative-layout data set can be reshaped by first gathering the data

# alternative layout -- gather, then spread
eugclim_alt2 <- gather(eugclim_alt, `1`:`12`, key="month", value="cases")
eugclim_alt2

## # A tibble: 180 x 4
##     year param month cases
##    <dbl> <chr> <chr> <dbl>
##  1  2013 tmax  1       5.7
##  2  2013 tmin  1      -0.4
##  3  2013 tavg  1       2.6
##  4  2013 emxt  1      13.3
##  5  2013 emnt  1      -6.7
##  6  2014 tmax  1       7.8
##  7  2014 tmin  1       0.8
##  8  2014 tavg  1       4.3
##  9  2014 emxt  1      13.3
## 10  2014 emnt  1      -4.3
## # … with 170 more rows

The month values, which are now characters (which just happen to be numerals here), can be recoded to integers as follows:

# convert integer to month
eugclim_alt2$month <- as.integer(eugclim_alt2$month)

Then the “tall” stack of data is spread into rectangular data set using the values in the param column:

# spread
eugclim_alt3 <- spread(eugclim_alt2, key="param", value=cases)
eugclim_alt3

## # A tibble: 36 x 7
##     year month  emnt  emxt  tavg  tmax  tmin
##    <dbl> <int> <dbl> <dbl> <dbl> <dbl> <dbl>
##  1  2013     1  -6.7  13.3   2.6   5.7  -0.4
##  2  2013     2  -2.8  13.9   6.3  10.2   2.3
##  3  2013     3  -2.2  22.2   8.7  14.5   3  
##  4  2013     4  -0.5  25.6  10.8  17     4.6
##  5  2013     5   1.1  30    14    21.1   6.9
##  6  2013     6   4.4  35.6  17.4  25     9.8
##  7  2013     7   6.1  35.6  20.7  30.6  10.8
##  8  2013     8   7.8  35    20.7  28.6  12.7
##  9  2013     9   5    32.2  17.5  23.1  11.9
## 10  2013    10  -2.1  25.6  10.2  16.5   3.9
## # … with 26 more rows
…
## # A tibble: 1 x 18
##    year   mon  yrmn  tmax  tmin  tavg  emxt  emnt  htdd  cldd  prcp  emxp  dp01  dp05  dp10  snow  emsd
##   <dbl> <dbl> <dbl> <dbl> <dbl> <dbl> <dbl> <dbl> <dbl> <dbl> <dbl> <dbl> <dbl> <dbl> <dbl> <dbl> <dbl>
## 1  2014     1  2014  7.97     1  4.47  15.5 -5.67  430.     0  53.5  19.2  10.7  1.33 0.333    NA    NA
## # … with 1 more variable: awnd <dbl>

Summarize the data by groups, in this case by months. First rearrange the data, and then summarize:

# summarize by groups -- define groups
eugclim_group <- group_by(eugclim, mon)
eugclim_group

## # A tibble: 36 x 18
## # Groups:   mon [12]
##     year   mon  yrmn  tmax  tmin  tavg  emxt  emnt  htdd  cldd  prcp  emxp  dp01  dp05  dp10  snow  emsd
##    <dbl> <dbl> <dbl> <dbl> <dbl> <dbl> <dbl> <dbl> <dbl> <dbl> <dbl> <dbl> <dbl> <dbl> <dbl> <dbl> <dbl>
##  1  2013     1 2013    5.7  -0.4   2.6  13.3  -6.7 487.    0    34.5   6.4    11     0     0    NA    NA
##  2  2013     2 2013.  10.2   2.3   6.3  13.9  -2.8 338.    0    41    11.2    14     0     0    NA    NA
##  3  2013     3 2013.  14.5   3     8.7  22.2  -2.2 298.    0    54.2  12.7    12     1     0    NA    NA
##  4  2013     4 2013.  17     4.6  10.8  25.6  -0.5 226.    0    36.8  11.9    10     0     0    NA     0
##  5  2013     5 2013.  21.1   6.9  14    30     1.1 137.    2.5  51.7  13      13     1     0    NA     0
##  6  2013     6 2013.  25     9.8  17.4  35.6   4.4  54    25.3  28.1  18.3     7     1     0     0     0
##  7  2013     7 2014.  30.6  10.8  20.7  35.6   6.1   4.5  77.7   0     0       0     0     0     0     0
##  8  2013     8 2014.  28.6  12.7  20.7  35     7.8   7.1  79.2   6.4   3.8     4     0     0     0     0
##  9  2013     9 2014.  23.1  11.9  17.5  32.2   5    57    33.1 180.   48.3    15     6     1    NA     0
## 10  2013    10 2014.  16.5   3.9  10.2  25.6  -2.1 252.    0    14.8   8.4     6     0     0    NA     0
## # … with 26 more rows, and 1 more variable: awnd <dbl>
…
